DRAM_test/RESULT.vcd
$date
     Feb 28, 2021       01:31:55
$end

$version
 SystemC 2.3.3-Accellera --- Jan 31 2021 20:38:33
$end

$timescale
     1 ps
$end

$scope module SystemC $end
$var wire   32  aaaaa  dmac->state [31:0]  $end
$var wire   32  aaaab  dmac->count_Reg [31:0]  $end
$var wire   32  aaaac  dmac->length_Reg [31:0]  $end
$var wire    1  aaaad  dmac->data_valid       $end
$var wire   32  aaaae  dmac->read_data [31:0]  $end
$var wire    1  aaaaf  dmac->DMA_start       $end
$var wire   32  aaaag  dmac->length [31:0]  $end
$var wire   32  aaaah  dmac->tgt [31:0]  $end
$var wire   32  aaaai  dmac->src [31:0]  $end
$var wire    1  aaaaj  dmac->rst       $end
$var wire    1  aaaak  dmac->clk       $end
$upscope $end
$enddefinitions  $end

$comment
All initial values are dumped below at time 0 sec = 0 timescale units.
$end

$dumpvars
b0 aaaaa
b0 aaaab
b0 aaaac
0aaaad
b0 aaaae
0aaaaf
b0 aaaag
b0 aaaah
b0 aaaai
1aaaaj
1aaaak
$end

#5000
0aaaak

#10000
b1 aaaaa
b10 aaaac
1aaaaf
b10 aaaag
b1010 aaaah
0aaaaj
1aaaak

#15000
0aaaak

#20000
b1 aaaab
1aaaad
b10000000000000010 aaaae
0aaaaf
1aaaak

#25000
0aaaak

#30000
b0 aaaaa
b10 aaaab
b11111101111111100000010000000001 aaaae
1aaaak

#35000
0aaaak

#40000
b0 aaaab
b0 aaaac
0aaaad
1aaaak

#45000
0aaaak

#50000
1aaaak

#55000
0aaaak

#60000
1aaaak

#65000
0aaaak

#70000
1aaaak

#75000
0aaaak

#80000
1aaaak

#85000
0aaaak

#90000
1aaaak

#95000
0aaaak

#100000
1aaaak

#105000
0aaaak

#110000
1aaaak

#115000
0aaaak

#120000
1aaaak

#125000
0aaaak

#130000
1aaaak

#135000
0aaaak

#140000
1aaaak

#145000
0aaaak

#150000
1aaaak

#155000
0aaaak

#160000
1aaaak

#165000
0aaaak

#170000
1aaaak

#175000
0aaaak

#180000
1aaaak

#185000
0aaaak

#190000
1aaaak

#195000
0aaaak

#200000
1aaaak

#205000
0aaaak

#210000
1aaaak

#215000
0aaaak

#220000
1aaaak

#225000
0aaaak

#230000
1aaaak

#235000
0aaaak

#240000
1aaaak

#245000
0aaaak

#250000
1aaaak

#255000
0aaaak

#260000
1aaaak

#265000
0aaaak

#270000
1aaaak

#275000
0aaaak

