DRAM_test/RESULT.vcd
$date
     Feb 25, 2021       01:04:44
$end

$version
 SystemC 2.3.3-Accellera --- Jan 31 2021 20:38:33
$end

$timescale
     1 ps
$end

$scope module SystemC $end
$var wire   32  aaaaa  dmac->state [31:0]  $end
$var wire   32  aaaab  dmac->counter [31:0]  $end
$var wire   32  aaaac  dmac->size [31:0]  $end
$var wire    1  aaaad  dmac->DMA_start       $end
$var wire    1  aaaae  dmac->rst       $end
$var wire    1  aaaaf  dmac->clk       $end
$upscope $end
$enddefinitions  $end

$comment
All initial values are dumped below at time 0 sec = 0 timescale units.
$end

$dumpvars
b0 aaaaa
b0 aaaab
b0 aaaac
0aaaad
1aaaae
1aaaaf
$end

#5000
0aaaaf

#10000
0aaaae
1aaaaf

#15000
0aaaaf

#20000
b1 aaaaa
1aaaad
1aaaaf

#25000
0aaaaf

#30000
b1 aaaab
b1001 aaaac
1aaaaf

#35000
0aaaaf

#40000
b10 aaaab
1aaaaf

#45000
0aaaaf

#50000
b11 aaaab
1aaaaf

#55000
0aaaaf

#60000
b100 aaaab
1aaaaf

#65000
0aaaaf

#70000
b101 aaaab
1aaaaf

#75000
0aaaaf

#80000
b110 aaaab
1aaaaf

#85000
0aaaaf

#90000
b111 aaaab
1aaaaf

#95000
0aaaaf

#100000
b1000 aaaab
1aaaaf

#105000
0aaaaf

#110000
b1001 aaaab
1aaaaf

#115000
0aaaaf

#120000
b0 aaaaa
b1010 aaaab
1aaaaf

#125000
0aaaaf

#130000
b1 aaaaa
1aaaaf

#135000
0aaaaf

#140000
b0 aaaaa
b1011 aaaab
1aaaaf

#145000
0aaaaf

#150000
b1 aaaaa
1aaaaf

#155000
0aaaaf

#160000
b0 aaaaa
b1100 aaaab
1aaaaf

#165000
0aaaaf

#170000
b1 aaaaa
1aaaaf

#175000
0aaaaf

#180000
b0 aaaaa
b1101 aaaab
1aaaaf

#185000
0aaaaf

#190000
b1 aaaaa
1aaaaf

#195000
0aaaaf

#200000
b0 aaaaa
b1110 aaaab
1aaaaf

#205000
0aaaaf

#210000
b1 aaaaa
1aaaaf

#215000
0aaaaf

#220000
b0 aaaaa
b1111 aaaab
1aaaaf

#225000
0aaaaf

#230000
b1 aaaaa
1aaaaf

#235000
0aaaaf

#240000
b0 aaaaa
b10000 aaaab
1aaaaf

#245000
0aaaaf

#250000
b1 aaaaa
1aaaaf

#255000
0aaaaf

#260000
b0 aaaaa
b10001 aaaab
1aaaaf

#265000
0aaaaf

#270000
b1 aaaaa
1aaaaf

#275000
0aaaaf

