nb_trans/result.vcd
$date
     Mar 29, 2021       00:28:38
$end

$version
 SystemC 2.3.3-Accellera --- Jan 31 2021 20:38:33
$end

$timescale
     1 ps
$end

$scope module SystemC $end
$var wire    1  aaaaa  clk       $end
$scope module dma $end
$var wire    1  aaaab  dram_done       $end
$var wire   32  aaaac  data_buffer(0) [31:0]  $end
$var wire   32  aaaad  state [31:0]  $end
$var wire   32  aaaae  src [31:0]  $end
$var wire    1  aaaaf  DMA_start       $end
$var wire    1  aaaag  clk       $end
$upscope $end
$upscope $end
$enddefinitions  $end

$comment
All initial values are dumped below at time 0 sec = 0 timescale units.
$end

$dumpvars
1aaaaa
0aaaab
b10011111100001010001001011001000 aaaac
b0 aaaad
b0 aaaae
0aaaaf
1aaaag
$end

#5000
0aaaag

#10000
b1 aaaad
1aaaaf
1aaaag

#15000
0aaaag

#20000
b10 aaaac
b10 aaaad
1aaaag

#25000
0aaaag

#30000
1aaaag

#35000
0aaaag

#40000
1aaaag

#45000
0aaaag

#50000
1aaaag

#55000
0aaaag

#60000
1aaaag

#65000
0aaaag

#70000
1aaaag

#75000
0aaaag

#77000
1aaaab

#80000
b1 aaaad
b100 aaaae
1aaaag

#85000
0aaaag

#90000
0aaaab
b11 aaaac
b10 aaaad
1aaaag

#95000
0aaaag

#100000
1aaaag

#102000
1aaaab

#105000
0aaaag

#110000
b1 aaaad
1aaaag

#115000
0aaaag

#120000
0aaaab
b10 aaaad
1aaaag

#125000
0aaaag

#130000
1aaaag

#132000
1aaaab

#135000
0aaaag

#140000
b1 aaaad
1aaaag

#145000
0aaaag

#150000
0aaaab
b10 aaaad
1aaaag

